TIMESTAMP;NHORA;ACTIVA_I;INCID1;ACTIVA_E;INCID2;REACTQ1;INCID3;REACTQ2;INCID4;REACTQ3;INCID5;REACTQ4;INCID6;RESERVA1;INCID7;RESERVA2;INCID8
21/07/2019 00:15;V;0;2;0;2;0;2;0;2;0;2;0;2;2;2;2;2
21/07/2019 00:30;V;0;2;0;2;0;2;0;2;0;2;6;2;2;2;2;2
21/07/2019 00:45;V;0;2;0;2;0;2;0;2;0;2;0;2;2;2;2;2
21/07/2019 01:00;V;0;2;0;2;0;2;0;2;0;2;0;2;2;2;2;2
21/07/2019 01:15;V;0;2;0;2;0;2;0;2;0;2;0;2;2;2;2;2
21/07/2019 01:30;V;0;2;0;2;0;2;0;2;0;2;0;2;2;2;2;2
21/07/2019 01:45;V;0;2;0;2;0;2;0;2;0;2;0;2;2;2;2;2
21/07/2019 02:00;V;0;2;0;2;0;2;0;2;0;2;0;2;2;2;2;2
21/07/2019 02:15;V;0;2;0;2;0;2;0;2;0;2;0;2;2;2;2;2
21/07/2019 02:30;V;0;2;0;2;0;2;0;2;0;2;0;2;2;2;2;2
21/07/2019 02:45;V;0;2;0;2;0;2;0;2;0;2;0;2;2;2;2;2
21/07/2019 03:00;V;0;2;0;2;0;2;0;2;0;2;0;2;2;2;2;2
21/07/2019 03:15;V;0;2;0;2;0;2;0;2;0;2;0;2;2;2;2;2
21/07/2019 03:30;V;0;2;0;2;0;2;0;2;0;2;0;2;2;2;2;2
21/07/2019 03:45;V;0;2;0;2;0;2;0;2;0;2;0;2;2;2;2;2
21/07/2019 04:00;V;0;2;0;2;0;2;0;2;0;2;0;2;2;2;2;2
21/07/2019 04:15;V;0;2;0;2;0;2;0;2;0;2;0;2;2;2;2;2
21/07/2019 04:30;V;0;2;0;2;0;2;0;2;0;2;0;2;2;2;2;2
21/07/2019 04:45;V;0;2;0;2;0;2;0;2;0;2;0;2;2;2;2;2
21/07/2019 05:00;V;0;2;0;2;0;2;0;2;0;2;0;2;2;2;2;2
21/07/2019 05:15;V;0;2;0;2;0;2;0;2;0;2;0;2;2;2;2;2
21/07/2019 05:30;V;0;2;0;2;0;2;0;2;0;2;0;2;2;2;2;2
21/07/2019 05:45;V;0;2;0;2;0;2;0;2;0;2;0;2;2;2;2;2
21/07/2019 06:00;V;0;2;0;2;0;2;0;2;0;2;0;2;2;2;2;2
21/07/2019 06:15;V;0;2;0;2;0;2;0;2;0;2;0;2;2;2;2;2
21/07/2019 06:30;V;0;2;0;2;0;2;0;2;0;2;0;2;2;2;2;2
21/07/2019 06:45;V;0;2;0;2;0;2;0;2;0;2;0;2;2;2;2;2
21/07/2019 07:00;V;0;2;0;2;0;2;0;2;0;2;0;2;2;2;2;2
21/07/2019 07:15;V;0;2;0;2;0;2;0;2;0;2;0;2;2;2;2;2
21/07/2019 07:30;V;0;2;0;2;0;2;0;2;0;2;0;2;2;2;2;2
21/07/2019 07:45;V;0;2;0;2;0;2;0;2;0;2;0;2;2;2;2;2
21/07/2019 08:00;V;0;2;0;2;0;2;0;2;0;2;0;2;2;2;2;2
21/07/2019 08:15;V;0;2;0;2;0;2;0;2;0;2;0;2;2;2;2;2
21/07/2019 08:30;V;0;2;0;2;0;2;0;2;0;2;0;2;2;2;2;2
21/07/2019 08:45;V;0;2;0;2;0;2;0;2;0;2;0;2;2;2;2;2
21/07/2019 09:00;V;0;2;0;2;0;2;0;2;0;2;0;2;2;2;2;2
21/07/2019 09:15;V;0;2;0;2;0;2;0;2;0;2;0;2;2;2;2;2
21/07/2019 09:30;V;0;2;0;2;0;2;0;2;0;2;0;2;2;2;2;2
21/07/2019 09:45;V;0;2;0;2;0;2;0;2;0;2;0;2;2;2;2;2
21/07/2019 10:00;V;0;2;0;2;0;2;0;2;0;2;0;2;2;2;2;2
21/07/2019 10:15;V;0;2;0;2;0;2;0;2;0;2;0;2;2;2;2;2
21/07/2019 10:30;V;0;2;0;2;0;2;0;2;0;2;0;2;2;2;2;2
21/07/2019 10:45;V;0;2;0;2;0;2;0;2;0;2;0;2;2;2;2;2
21/07/2019 11:00;V;0;2;0;2;0;2;0;2;0;2;0;2;2;2;2;2
21/07/2019 11:15;V;0;2;0;2;0;2;0;2;0;2;0;2;2;2;2;2
21/07/2019 11:30;V;0;2;0;2;0;2;0;2;0;2;0;2;2;2;2;2
21/07/2019 11:45;V;0;2;0;2;0;2;0;2;0;2;0;2;2;2;2;2
21/07/2019 12:00;V;0;2;0;2;0;2;0;2;0;2;0;2;2;2;2;2
21/07/2019 12:15;V;0;2;0;2;0;2;0;2;0;2;6;2;2;2;2;2
21/07/2019 12:30;V;0;2;0;2;0;2;0;2;0;2;0;2;2;2;2;2
21/07/2019 12:45;V;0;2;0;2;0;2;0;2;0;2;6;2;2;2;2;2
21/07/2019 13:00;V;0;2;0;2;0;2;0;2;0;2;0;2;2;2;2;2
21/07/2019 13:15;V;0;2;0;2;0;2;0;2;0;2;0;2;2;2;2;2
21/07/2019 13:30;V;0;2;0;2;0;2;0;2;0;2;0;2;2;2;2;2
21/07/2019 13:45;V;0;2;0;2;0;2;0;2;0;2;0;2;2;2;2;2
21/07/2019 14:00;V;0;2;0;2;0;2;0;2;0;2;0;2;2;2;2;2
21/07/2019 14:15;V;0;2;0;2;0;2;0;2;0;2;0;2;2;2;2;2
21/07/2019 14:30;V;0;2;0;2;0;2;0;2;0;2;0;2;2;2;2;2
21/07/2019 14:45;V;0;2;0;2;0;2;0;2;0;2;0;2;2;2;2;2
21/07/2019 15:00;V;0;2;0;2;0;2;0;2;0;2;0;2;2;2;2;2
21/07/2019 15:15;V;0;2;0;2;0;2;0;2;0;2;0;2;2;2;2;2
21/07/2019 15:30;V;0;2;0;2;0;2;0;2;0;2;0;2;2;2;2;2
21/07/2019 15:45;V;0;2;0;2;0;2;0;2;0;2;0;2;2;2;2;2
21/07/2019 16:00;V;0;2;0;2;0;2;0;2;0;2;0;2;2;2;2;2
21/07/2019 16:15;V;0;2;0;2;0;2;0;2;0;2;0;2;2;2;2;2
21/07/2019 16:30;V;0;2;0;2;0;2;0;2;0;2;0;2;2;2;2;2
21/07/2019 16:45;V;0;2;0;2;0;2;0;2;0;2;0;2;2;2;2;2
21/07/2019 17:00;V;0;2;0;2;0;2;0;2;0;2;0;2;2;2;2;2
21/07/2019 17:15;V;0;2;0;2;0;2;0;2;0;2;0;2;2;2;2;2
21/07/2019 17:30;V;0;2;0;2;0;2;0;2;0;2;0;2;2;2;2;2
21/07/2019 17:45;V;0;2;0;2;0;2;0;2;0;2;0;2;2;2;2;2
21/07/2019 18:00;V;0;2;0;2;0;2;0;2;0;2;0;2;2;2;2;2
21/07/2019 18:15;V;0;2;0;2;0;2;0;2;0;2;0;2;2;2;2;2
21/07/2019 18:30;V;0;2;0;2;0;2;0;2;0;2;0;2;2;2;2;2
21/07/2019 18:45;V;0;2;0;2;0;2;0;2;0;2;0;2;2;2;2;2
21/07/2019 19:00;V;0;2;0;2;0;2;0;2;0;2;0;2;2;2;2;2
21/07/2019 19:15;V;0;2;0;2;0;2;0;2;0;2;0;2;2;2;2;2
21/07/2019 19:30;V;0;2;0;2;0;2;0;2;0;2;0;2;2;2;2;2
21/07/2019 19:45;V;0;2;0;2;0;2;0;2;0;2;0;2;2;2;2;2
21/07/2019 20:00;V;0;2;0;2;0;2;0;2;0;2;0;2;2;2;2;2
21/07/2019 20:15;V;0;2;0;2;0;2;0;2;0;2;0;2;2;2;2;2
21/07/2019 20:30;V;0;2;0;2;0;2;0;2;0;2;0;2;2;2;2;2
21/07/2019 20:45;V;0;2;0;2;0;2;0;2;0;2;0;2;2;2;2;2
21/07/2019 21:00;V;0;2;0;2;0;2;0;2;0;2;0;2;2;2;2;2
21/07/2019 21:15;V;0;2;0;2;0;2;0;2;0;2;0;2;2;2;2;2
21/07/2019 21:30;V;0;2;0;2;0;2;0;2;0;2;0;2;2;2;2;2
21/07/2019 21:45;V;0;2;0;2;0;2;0;2;0;2;0;2;2;2;2;2
21/07/2019 22:00;V;0;2;0;2;0;2;0;2;0;2;0;2;2;2;2;2
21/07/2019 22:15;V;0;2;0;2;0;2;0;2;0;2;0;2;2;2;2;2
21/07/2019 22:30;V;0;2;0;2;0;2;0;2;0;2;0;2;2;2;2;2
21/07/2019 22:45;V;0;2;0;2;0;2;0;2;0;2;0;2;2;2;2;2
21/07/2019 23:00;V;0;2;0;2;0;2;0;2;0;2;0;2;2;2;2;2
21/07/2019 23:15;V;0;2;0;2;0;2;0;2;0;2;0;2;2;2;2;2
21/07/2019 23:30;V;0;2;0;2;0;2;0;2;0;2;0;2;2;2;2;2
21/07/2019 23:45;V;0;2;0;2;0;2;0;2;0;2;0;2;2;2;2;2
22/07/2019 00:00;V;0;2;0;2;0;2;0;2;0;2;0;2;2;2;2;2
22/07/2019 00:15;V;0;2;0;2;0;2;0;2;0;2;0;2;2;2;2;2
22/07/2019 00:30;V;0;2;0;2;0;2;0;2;0;2;6;2;2;2;2;2
22/07/2019 00:45;V;0;2;0;2;0;2;0;2;0;2;0;2;2;2;2;2
22/07/2019 01:00;V;0;2;0;2;0;2;0;2;0;2;6;2;2;2;2;2